^G:\VIRTUAL WORLDS\ENVIRONMENT-MAPPING\CLIGHT.CPP
/c /ZI /JMC /nologo /W3 /WX- /diagnostics:column /sdl /Od /D _DEBUG /D _CONSOLE /D _UNICODE /D UNICODE /Gm- /EHsc /RTC1 /MDd /GS /fp:precise /permissive- /Zc:wchar_t /Zc:forScope /Zc:inline /Fo"X64\DEBUG\\" /Fd"X64\DEBUG\VC142.PDB" /external:W3 /Gd /TP /FC G:\VIRTUAL WORLDS\ENVIRONMENT-MAPPING\CLIGHT.CPP
^G:\VIRTUAL WORLDS\ENVIRONMENT-MAPPING\CMESH.CPP
/c /ZI /JMC /nologo /W3 /WX- /diagnostics:column /sdl /Od /D _DEBUG /D _CONSOLE /D _UNICODE /D UNICODE /Gm- /EHsc /RTC1 /MDd /GS /fp:precise /permissive- /Zc:wchar_t /Zc:forScope /Zc:inline /Fo"X64\DEBUG\\" /Fd"X64\DEBUG\VC142.PDB" /external:W3 /Gd /TP /FC G:\VIRTUAL WORLDS\ENVIRONMENT-MAPPING\CMESH.CPP
^G:\VIRTUAL WORLDS\ENVIRONMENT-MAPPING\CORE.CPP
/c /ZI /JMC /nologo /W3 /WX- /diagnostics:column /sdl /Od /D _DEBUG /D _CONSOLE /D _UNICODE /D UNICODE /Gm- /EHsc /RTC1 /MDd /GS /fp:precise /permissive- /Zc:wchar_t /Zc:forScope /Zc:inline /Fo"X64\DEBUG\\" /Fd"X64\DEBUG\VC142.PDB" /external:W3 /Gd /TP /FC G:\VIRTUAL WORLDS\ENVIRONMENT-MAPPING\CORE.CPP
^G:\VIRTUAL WORLDS\ENVIRONMENT-MAPPING\CSCENE.CPP
/c /ZI /JMC /nologo /W3 /WX- /diagnostics:column /sdl /Od /D _DEBUG /D _CONSOLE /D _UNICODE /D UNICODE /Gm- /EHsc /RTC1 /MDd /GS /fp:precise /permissive- /Zc:wchar_t /Zc:forScope /Zc:inline /Fo"X64\DEBUG\\" /Fd"X64\DEBUG\VC142.PDB" /external:W3 /Gd /TP /FC G:\VIRTUAL WORLDS\ENVIRONMENT-MAPPING\CSCENE.CPP
^G:\VIRTUAL WORLDS\ENVIRONMENT-MAPPING\CSHADER.CPP
/c /ZI /JMC /nologo /W3 /WX- /diagnostics:column /sdl /Od /D _DEBUG /D _CONSOLE /D _UNICODE /D UNICODE /Gm- /EHsc /RTC1 /MDd /GS /fp:precise /permissive- /Zc:wchar_t /Zc:forScope /Zc:inline /Fo"X64\DEBUG\\" /Fd"X64\DEBUG\VC142.PDB" /external:W3 /Gd /TP /FC G:\VIRTUAL WORLDS\ENVIRONMENT-MAPPING\CSHADER.CPP
^G:\VIRTUAL WORLDS\ENVIRONMENT-MAPPING\CSKYBOX.CPP
/c /ZI /JMC /nologo /W3 /WX- /diagnostics:column /sdl /Od /D _DEBUG /D _CONSOLE /D _UNICODE /D UNICODE /Gm- /EHsc /RTC1 /MDd /GS /fp:precise /permissive- /Zc:wchar_t /Zc:forScope /Zc:inline /Fo"X64\DEBUG\\" /Fd"X64\DEBUG\VC142.PDB" /external:W3 /Gd /TP /FC G:\VIRTUAL WORLDS\ENVIRONMENT-MAPPING\CSKYBOX.CPP
^G:\VIRTUAL WORLDS\ENVIRONMENT-MAPPING\CTEXTURE.CPP
/c /ZI /JMC /nologo /W3 /WX- /diagnostics:column /sdl /Od /D _DEBUG /D _CONSOLE /D _UNICODE /D UNICODE /Gm- /EHsc /RTC1 /MDd /GS /fp:precise /permissive- /Zc:wchar_t /Zc:forScope /Zc:inline /Fo"X64\DEBUG\\" /Fd"X64\DEBUG\VC142.PDB" /external:W3 /Gd /TP /FC G:\VIRTUAL WORLDS\ENVIRONMENT-MAPPING\CTEXTURE.CPP
^G:\VIRTUAL WORLDS\ENVIRONMENT-MAPPING\CTRANSFORM.CPP
/c /ZI /JMC /nologo /W3 /WX- /diagnostics:column /sdl /Od /D _DEBUG /D _CONSOLE /D _UNICODE /D UNICODE /Gm- /EHsc /RTC1 /MDd /GS /fp:precise /permissive- /Zc:wchar_t /Zc:forScope /Zc:inline /Fo"X64\DEBUG\\" /Fd"X64\DEBUG\VC142.PDB" /external:W3 /Gd /TP /FC G:\VIRTUAL WORLDS\ENVIRONMENT-MAPPING\CTRANSFORM.CPP
^G:\VIRTUAL WORLDS\ENVIRONMENT-MAPPING\TEXTFILE.CPP
/c /ZI /JMC /nologo /W3 /WX- /diagnostics:column /sdl /Od /D _DEBUG /D _CONSOLE /D _UNICODE /D UNICODE /Gm- /EHsc /RTC1 /MDd /GS /fp:precise /permissive- /Zc:wchar_t /Zc:forScope /Zc:inline /Fo"X64\DEBUG\\" /Fd"X64\DEBUG\VC142.PDB" /external:W3 /Gd /TP /FC G:\VIRTUAL WORLDS\ENVIRONMENT-MAPPING\TEXTFILE.CPP
^G:\VIRTUAL WORLDS\ENVIRONMENT-MAPPING\MAIN.CPP
/c /ZI /JMC /nologo /W3 /WX- /diagnostics:column /sdl /Od /D _DEBUG /D _CONSOLE /D _UNICODE /D UNICODE /Gm- /EHsc /RTC1 /MDd /GS /fp:precise /permissive- /Zc:wchar_t /Zc:forScope /Zc:inline /Fo"X64\DEBUG\\" /Fd"X64\DEBUG\VC142.PDB" /external:W3 /Gd /TP /FC G:\VIRTUAL WORLDS\ENVIRONMENT-MAPPING\MAIN.CPP
^G:\VIRTUAL WORLDS\ENVIRONMENT-MAPPING\CCAMERA.CPP
/c /ZI /JMC /nologo /W3 /WX- /diagnostics:column /sdl /Od /D _DEBUG /D _CONSOLE /D _UNICODE /D UNICODE /Gm- /EHsc /RTC1 /MDd /GS /fp:precise /permissive- /Zc:wchar_t /Zc:forScope /Zc:inline /Fo"X64\DEBUG\\" /Fd"X64\DEBUG\VC142.PDB" /external:W3 /Gd /TP /FC G:\VIRTUAL WORLDS\ENVIRONMENT-MAPPING\CCAMERA.CPP
^G:\ENVIRONMENT-MAPPING\CCAMERA.CPP
/c /ZI /JMC /nologo /W3 /WX- /diagnostics:column /sdl /Od /D _DEBUG /D _CONSOLE /D _UNICODE /D UNICODE /Gm- /EHsc /RTC1 /MDd /GS /fp:precise /permissive- /Zc:wchar_t /Zc:forScope /Zc:inline /Fo"X64\DEBUG\\" /Fd"X64\DEBUG\VC142.PDB" /external:W3 /Gd /TP /FC G:\ENVIRONMENT-MAPPING\CCAMERA.CPP
^G:\ENVIRONMENT-MAPPING\CLIGHT.CPP
/c /ZI /JMC /nologo /W3 /WX- /diagnostics:column /sdl /Od /D _DEBUG /D _CONSOLE /D _UNICODE /D UNICODE /Gm- /EHsc /RTC1 /MDd /GS /fp:precise /permissive- /Zc:wchar_t /Zc:forScope /Zc:inline /Fo"X64\DEBUG\\" /Fd"X64\DEBUG\VC142.PDB" /external:W3 /Gd /TP /FC G:\ENVIRONMENT-MAPPING\CLIGHT.CPP
^G:\ENVIRONMENT-MAPPING\CMESH.CPP
/c /ZI /JMC /nologo /W3 /WX- /diagnostics:column /sdl /Od /D _DEBUG /D _CONSOLE /D _UNICODE /D UNICODE /Gm- /EHsc /RTC1 /MDd /GS /fp:precise /permissive- /Zc:wchar_t /Zc:forScope /Zc:inline /Fo"X64\DEBUG\\" /Fd"X64\DEBUG\VC142.PDB" /external:W3 /Gd /TP /FC G:\ENVIRONMENT-MAPPING\CMESH.CPP
^G:\ENVIRONMENT-MAPPING\CORE.CPP
/c /ZI /JMC /nologo /W3 /WX- /diagnostics:column /sdl /Od /D _DEBUG /D _CONSOLE /D _UNICODE /D UNICODE /Gm- /EHsc /RTC1 /MDd /GS /fp:precise /permissive- /Zc:wchar_t /Zc:forScope /Zc:inline /Fo"X64\DEBUG\\" /Fd"X64\DEBUG\VC142.PDB" /external:W3 /Gd /TP /FC G:\ENVIRONMENT-MAPPING\CORE.CPP
^G:\ENVIRONMENT-MAPPING\CSCENE.CPP
/c /ZI /JMC /nologo /W3 /WX- /diagnostics:column /sdl /Od /D _DEBUG /D _CONSOLE /D _UNICODE /D UNICODE /Gm- /EHsc /RTC1 /MDd /GS /fp:precise /permissive- /Zc:wchar_t /Zc:forScope /Zc:inline /Fo"X64\DEBUG\\" /Fd"X64\DEBUG\VC142.PDB" /external:W3 /Gd /TP /FC G:\ENVIRONMENT-MAPPING\CSCENE.CPP
^G:\ENVIRONMENT-MAPPING\CSHADER.CPP
/c /ZI /JMC /nologo /W3 /WX- /diagnostics:column /sdl /Od /D _DEBUG /D _CONSOLE /D _UNICODE /D UNICODE /Gm- /EHsc /RTC1 /MDd /GS /fp:precise /permissive- /Zc:wchar_t /Zc:forScope /Zc:inline /Fo"X64\DEBUG\\" /Fd"X64\DEBUG\VC142.PDB" /external:W3 /Gd /TP /FC G:\ENVIRONMENT-MAPPING\CSHADER.CPP
^G:\ENVIRONMENT-MAPPING\CSKYBOX.CPP
/c /ZI /JMC /nologo /W3 /WX- /diagnostics:column /sdl /Od /D _DEBUG /D _CONSOLE /D _UNICODE /D UNICODE /Gm- /EHsc /RTC1 /MDd /GS /fp:precise /permissive- /Zc:wchar_t /Zc:forScope /Zc:inline /Fo"X64\DEBUG\\" /Fd"X64\DEBUG\VC142.PDB" /external:W3 /Gd /TP /FC G:\ENVIRONMENT-MAPPING\CSKYBOX.CPP
^G:\ENVIRONMENT-MAPPING\CTEXTURE.CPP
/c /ZI /JMC /nologo /W3 /WX- /diagnostics:column /sdl /Od /D _DEBUG /D _CONSOLE /D _UNICODE /D UNICODE /Gm- /EHsc /RTC1 /MDd /GS /fp:precise /permissive- /Zc:wchar_t /Zc:forScope /Zc:inline /Fo"X64\DEBUG\\" /Fd"X64\DEBUG\VC142.PDB" /external:W3 /Gd /TP /FC G:\ENVIRONMENT-MAPPING\CTEXTURE.CPP
^G:\ENVIRONMENT-MAPPING\CTRANSFORM.CPP
/c /ZI /JMC /nologo /W3 /WX- /diagnostics:column /sdl /Od /D _DEBUG /D _CONSOLE /D _UNICODE /D UNICODE /Gm- /EHsc /RTC1 /MDd /GS /fp:precise /permissive- /Zc:wchar_t /Zc:forScope /Zc:inline /Fo"X64\DEBUG\\" /Fd"X64\DEBUG\VC142.PDB" /external:W3 /Gd /TP /FC G:\ENVIRONMENT-MAPPING\CTRANSFORM.CPP
^G:\ENVIRONMENT-MAPPING\TEXTFILE.CPP
/c /ZI /JMC /nologo /W3 /WX- /diagnostics:column /sdl /Od /D _DEBUG /D _CONSOLE /D _UNICODE /D UNICODE /Gm- /EHsc /RTC1 /MDd /GS /fp:precise /permissive- /Zc:wchar_t /Zc:forScope /Zc:inline /Fo"X64\DEBUG\\" /Fd"X64\DEBUG\VC142.PDB" /external:W3 /Gd /TP /FC G:\ENVIRONMENT-MAPPING\TEXTFILE.CPP
^G:\ENVIRONMENT-MAPPING\MAIN.CPP
/c /ZI /JMC /nologo /W3 /WX- /diagnostics:column /sdl /Od /D _DEBUG /D _CONSOLE /D _UNICODE /D UNICODE /Gm- /EHsc /RTC1 /MDd /GS /fp:precise /permissive- /Zc:wchar_t /Zc:forScope /Zc:inline /Fo"X64\DEBUG\\" /Fd"X64\DEBUG\VC142.PDB" /external:W3 /Gd /TP /FC G:\ENVIRONMENT-MAPPING\MAIN.CPP
