^G:\ENVIRONMENT-MAPPING\X64\DEBUG\CCAMERA.OBJ|G:\ENVIRONMENT-MAPPING\X64\DEBUG\CLIGHT.OBJ|G:\ENVIRONMENT-MAPPING\X64\DEBUG\CMESH.OBJ|G:\ENVIRONMENT-MAPPING\X64\DEBUG\CORE.OBJ|G:\ENVIRONMENT-MAPPING\X64\DEBUG\CSCENE.OBJ|G:\ENVIRONMENT-MAPPING\X64\DEBUG\CSHADER.OBJ|G:\ENVIRONMENT-MAPPING\X64\DEBUG\CSKYBOX.OBJ|G:\ENVIRONMENT-MAPPING\X64\DEBUG\CTEXTURE.OBJ|G:\ENVIRONMENT-MAPPING\X64\DEBUG\CTRANSFORM.OBJ|G:\ENVIRONMENT-MAPPING\X64\DEBUG\MAIN.OBJ|G:\ENVIRONMENT-MAPPING\X64\DEBUG\TEXTFILE.OBJ
C:\PROGRAM FILES (X86)\WINDOWS KITS\10\LIB\10.0.17763.0\UM\X64\KERNEL32.LIB
C:\PROGRAM FILES (X86)\WINDOWS KITS\10\LIB\10.0.17763.0\UM\X64\USER32.LIB
C:\PROGRAM FILES (X86)\WINDOWS KITS\10\LIB\10.0.17763.0\UM\X64\GDI32.LIB
C:\PROGRAM FILES (X86)\WINDOWS KITS\10\LIB\10.0.17763.0\UM\X64\WINSPOOL.LIB
C:\PROGRAM FILES (X86)\WINDOWS KITS\10\LIB\10.0.17763.0\UM\X64\COMDLG32.LIB
C:\PROGRAM FILES (X86)\WINDOWS KITS\10\LIB\10.0.17763.0\UM\X64\ADVAPI32.LIB
C:\PROGRAM FILES (X86)\WINDOWS KITS\10\LIB\10.0.17763.0\UM\X64\SHELL32.LIB
C:\PROGRAM FILES (X86)\WINDOWS KITS\10\LIB\10.0.17763.0\UM\X64\OLE32.LIB
C:\PROGRAM FILES (X86)\WINDOWS KITS\10\LIB\10.0.17763.0\UM\X64\OLEAUT32.LIB
C:\PROGRAM FILES (X86)\WINDOWS KITS\10\LIB\10.0.17763.0\UM\X64\UUID.LIB
C:\PROGRAM FILES (X86)\WINDOWS KITS\10\LIB\10.0.17763.0\UM\X64\ODBC32.LIB
C:\PROGRAM FILES (X86)\WINDOWS KITS\10\LIB\10.0.17763.0\UM\X64\ODBCCP32.LIB
G:\ENVIRONMENT-MAPPING\X64\DEBUG\CCAMERA.OBJ
G:\ENVIRONMENT-MAPPING\X64\DEBUG\CLIGHT.OBJ
G:\ENVIRONMENT-MAPPING\X64\DEBUG\CMESH.OBJ
G:\ENVIRONMENT-MAPPING\X64\DEBUG\CORE.OBJ
G:\ENVIRONMENT-MAPPING\X64\DEBUG\CSCENE.OBJ
G:\ENVIRONMENT-MAPPING\X64\DEBUG\CSHADER.OBJ
G:\ENVIRONMENT-MAPPING\X64\DEBUG\CSKYBOX.OBJ
G:\ENVIRONMENT-MAPPING\X64\DEBUG\CTEXTURE.OBJ
G:\ENVIRONMENT-MAPPING\X64\DEBUG\CTRANSFORM.OBJ
G:\ENVIRONMENT-MAPPING\X64\DEBUG\MAIN.OBJ
G:\ENVIRONMENT-MAPPING\X64\DEBUG\TEXTFILE.OBJ
C:\WINDOWS\SYSTEM32\TZRES.DLL
C:\WINDOWS\GLOBALIZATION\SORTING\SORTDEFAULT.NLS
C:\PROGRAM FILES (X86)\MICROSOFT VISUAL STUDIO\2019\COMMUNITY\VC\TOOLS\MSVC\14.29.30133\LIB\X64\MSVCPRTD.LIB
C:\PROGRAM FILES (X86)\MICROSOFT VISUAL STUDIO\2019\COMMUNITY\VC\TOOLS\MSVC\14.29.30133\LIB\X64\MSVCRTD.LIB
C:\PROGRAM FILES (X86)\MICROSOFT VISUAL STUDIO\2019\COMMUNITY\VC\TOOLS\MSVC\14.29.30133\LIB\X64\OLDNAMES.LIB
C:\PROGRAM FILES (X86)\WINDOWS KITS\10\LIB\10.0.17763.0\UM\X64\OPENGL32.LIB
C:\PROGRAM FILES (X86)\WINDOWS KITS\10\LIB\10.0.17763.0\UM\X64\GLU32.LIB
G:\ENVIRONMENT-MAPPING\GLFW3.LIB
G:\ENVIRONMENT-MAPPING\GLEW32S.LIB
G:\ENVIRONMENT-MAPPING\GLEW32.LIB
C:\PROGRAM FILES (X86)\MICROSOFT VISUAL STUDIO\2019\COMMUNITY\VC\TOOLS\MSVC\14.29.30133\LIB\X64\MSVCRT.LIB
C:\PROGRAM FILES (X86)\MICROSOFT VISUAL STUDIO\2019\COMMUNITY\VC\TOOLS\MSVC\14.29.30133\LIB\X64\LIBCMT.LIB
C:\PROGRAM FILES (X86)\MICROSOFT VISUAL STUDIO\2019\COMMUNITY\VC\TOOLS\MSVC\14.29.30133\LIB\X64\VCRUNTIMED.LIB
C:\PROGRAM FILES (X86)\WINDOWS KITS\10\LIB\10.0.17763.0\UCRT\X64\UCRTD.LIB
